{
  "name": "ImageData",
  "fields": [
    {
      "fieldName": "imageSize",
      "fieldType": "String",
      "fieldValidateRules": ["required", "maxlength"],
      "fieldValidateRulesMaxlength": "40"
    },
    {
      "fieldName": "imageBytes",
      "fieldType": "byte[]",
      "fieldTypeBlobContent": "image",
      "fieldValidateRules": ["required"]
    }
  ],
  "relationships": [
    {
      "relationshipType": "many-to-one",
      "otherEntityName": "image",
      "otherEntityRelationshipName": "imageData",
      "relationshipValidateRules": "required",
      "relationshipName": "image"
    }
  ],
  "entityTableName": "image_data",
  "dto": "mapstruct",
  "pagination": "infinite-scroll",
  "service": "serviceClass",
  "jpaMetamodelFiltering": false,
  "fluentMethods": true,
  "readOnly": false,
  "embedded": false,
  "applications": ["mmdbweb", "mmdbmstmdb"],
  "microserviceName": "mmdbmstmdb",
  "clientRootFolder": "mmdbmstmdb",
  "databaseType": "mongodb",
  "changelogDate": "20210213172334"
}
